{
  "lines": [
    { "line": "Yeah", "time": 0.0 },
    { "line": "We gettin' ready to break y'all, it's winner take all", "time": 0.0 },
    { "line": "The game is locked we down to the eight-ball", "time": 0.0 },
    { "line": "The time is now, it ain't nothin' to wait for", "time": 0.0 },
    { "line": "I'm a king by blood, a soldier by nature", "time": 0.0 },
    { "line": "I'm somethin' like a threat to y'all space cadets", "time": 0.0 },
    { "line": "'Cause you never met a brother nothin' like me yet", "time": 0.0 },
    { "line": "So push another slice into your toaster, tighten your vests", "time": 0.0 },
    { "line": "'Cause it's a warrior you seein' here tonight in the flesh", "time": 0.0 },
    { "line": "I give you somethin' high voltage, double the dosage", "time": 0.0 },
    { "line": "Runnin' with these vultures, givin' me ulcers", "time": 0.0 },
    { "line": "Which one of these hustlers bringin' the thunder?", "time": 0.0 },
    { "line": "'Riq Geez not another man takin' us under", "time": 0.0 },
    { "line": "Nigga please which Philly cat doin' his own thing", "time": 0.0 },
    { "line": "Might say Black my give you a code name", "time": 0.0 },
    { "line": "Round my neck see the microphone hang", "time": 0.0 },
    { "line": "Have your lady lip-synchin' like on Soul Train", "time": 0.0 },
    { "line": "The niggas that's a problem's a minimal margin", "time": 0.0 },
    { "line": "The Colonel, Captain, Lieutenant, General, Sergeant", "time": 0.0 },
    { "line": "Black, one man army movin' in on your squadron", "time": 0.0 },
    { "line": "You sittin' still you know you a target", "time": 0.0 },
    { "line": "You heard, you better duck down!", "time": 0.0 },
    { "line": "See me comin' better tuck those chains", "time": 0.0 },
    { "line": "'Cause you don't wanna feel them thangs", "time": 0.0 },
    { "line": "If you want it, you can get it baby", "time": 0.0 },
    { "line": "You know you need to get low", "time": 0.0 },
    { "line": "Duck down! (Duck down!)", "time": 0.0 },
    { "line": "See me comin' better tuck those chains", "time": 0.0 },
    { "line": "'Cause you don't wanna feel them thangs", "time": 0.0 },
    { "line": "If you want it, you can get it baby", "time": 0.0 },
    { "line": "You know you need to get low", "time": 0.0 },
    { "line": "Duck down! (Duck down!)", "time": 0.0 },
    { "line": "Yeah", "time": 0.0 },
    { "line": "We gettin' set to get rid of y'all, that's what it's headin' for", "time": 0.0 },
    { "line": "The underdog knuckle and brawl with the bigger ball", "time": 0.0 },
    { "line": "I spit what your wig absorb, sicker than sycamore", "time": 0.0 },
    { "line": "I'm creatin' a circumstance that you a victim of", "time": 0.0 },
    { "line": "The rebel or the renegade out on the quest", "time": 0.0 },
    { "line": "The super black man runnin' wit a S on his chest", "time": 0.0 },
    { "line": "That stand for the straight struggle to escape the stress", "time": 0.0 },
    { "line": "You think it's sweet tryin' to eat, you ain't taste this yet", "time": 0.0 },
    { "line": "So make y'all steps precautious into the darkness", "time": 0.0 },
    { "line": "Thoughts cold and heartless makin' me nauseous", "time": 0.0 },
    { "line": "Gettin' more remorseless for what I done", "time": 0.0 },
    { "line": "If the lawyers and courts wonder what I run", "time": 0.0 },
    { "line": "Them civil liberties is free, but just for some", "time": 0.0 },
    { "line": "How you a gangster when you scared to bust your gun", "time": 0.0 },
    { "line": "For the call, trust your fam or trust nobody at all", "time": 0.0 },
    { "line": "See them brothers gettin' struck down", "time": 0.0 },
    { "line": "They better duck down", "time": 0.0 },
    { "line": "See me comin' better tuck those chains", "time": 0.0 },
    { "line": "'Cause you don't wanna feel them thangs", "time": 0.0 },
    { "line": "If you want it, you can get it baby", "time": 0.0 },
    { "line": "You know you need to get low", "time": 0.0 },
    { "line": "Duck down! (Duck down!)", "time": 0.0 },
    { "line": "See me comin' better tuck those chains", "time": 0.0 },
    { "line": "'Cause you don't wanna feel them thangs", "time": 0.0 },
    { "line": "If you want it, you can get it baby", "time": 0.0 },
    { "line": "You know you need to get low", "time": 0.0 },
    { "line": "Duck down! (Duck down!)", "time": 0.0 },
    { "line": "Yeah", "time": 0.0 },
    { "line": "I can feel somethin' fa sho, I've been up in here before", "time": 0.0 },
    { "line": "The gladiator in a Colosseum ready for war", "time": 0.0 },
    { "line": "That old timer holdin' his revolver set to blow", "time": 0.0 },
    { "line": "Just like a gladiator at whoever stick his head in the door", "time": 0.0 },
    { "line": "And one who been through it all, anything go", "time": 0.0 },
    { "line": "Rather give it to you straight 'stead of speakin in codes", "time": 0.0 },
    { "line": "'Cause man, that bullshit can get you riddled with holes", "time": 0.0 },
    { "line": "If you ain't insured then the hospitals is closed", "time": 0.0 },
    { "line": "You got to go uptown while ya leakin' on the ground", "time": 0.0 },
    { "line": "In cases like these, you need to duck down", "time": 0.0 },
    { "line": "You're five dollar toys, I'm a million dollar man", "time": 0.0 },
    { "line": "Esquire 'Riq Geez go according to plan", "time": 0.0 },
    { "line": "I'm thinkin' outside the box, off the blocks", "time": 0.0 },
    { "line": "An outside your concept of time, off the clocks for real", "time": 0.0 },
    { "line": "Well it's Black Thought your boss DJ", "time": 0.0 },
    { "line": "However, you brothers weigh that's what you gon' pay", "time": 0.0 },
    { "line": "See me comin' better tuck those chains", "time": 0.0 },
    { "line": "'Cause you don't wanna feel them thangs", "time": 0.0 },
    { "line": "If you want it, you can get it baby", "time": 0.0 },
    { "line": "You know you need to get low", "time": 0.0 },
    { "line": "Duck down! (Duck down!)", "time": 0.0 },
    { "line": "See me comin' better tuck those chains", "time": 0.0 },
    { "line": "'Cause you don't wanna feel them thangs", "time": 0.0 },
    { "line": "If you want it, you can get it baby", "time": 0.0 },
    { "line": "You know you need to get low", "time": 0.0 },
    { "line": "Duck down! (Duck down!)", "time": 0.0 },
    { "line": "See me comin' better tuck those chains", "time": 0.0 },
    { "line": "'Cause you don't wanna feel them thangs", "time": 0.0 },
    { "line": "If you want it, you can get it baby", "time": 0.0 },
    { "line": "You know you need to get low", "time": 0.0 },
    { "line": "Duck down! (Duck down!)", "time": 0.0 },
    { "line": "See me comin' better tuck those chains", "time": 0.0 },
    { "line": "'Cause you don't wanna feel them thangs", "time": 0.0 },
    { "line": "If you want it, you can get it baby", "time": 0.0 }
  ]
}
